{
  "nested": {
    "Cora": {
      "nested": {
        "Powered": {
          "nested": {
            "Configuration": {
              "fields": {
                "displayMode": {
                  "type": "Cora.LedDisplayMode",
                  "id": 1
                },
                "healthCheckInterval": {
                  "type": "uint32",
                  "id": 2
                },
                "version": {
                  "type": "string",
                  "id": 3
                }
              }
            },
            "Device": {
              "methods": {
                "HealthCheckEvent": {
                  "requestType": "Cora.HealthCheckInfo",
                  "responseType": "Cora.VoidMsg"
                },
                "ResetEvent": {
                  "requestType": "Cora.ResetInfo",
                  "responseType": "Cora.VoidMsg"
                },
                "GetConfig": {
                  "requestType": "Cora.VoidMsg",
                  "responseType": "Configuration"
                },
                "SetConfig": {
                  "requestType": "Configuration",
                  "responseType": "Configuration"
                },
                "SetTimeSettings": {
                  "requestType": "Cora.TimeConfiguration",
                  "responseType": "Cora.VoidMsg"
                },
                "GetTimeSettings": {
                  "requestType": "Cora.VoidMsg",
                  "responseType": "Cora.TimeConfiguration"
                },
                "SynchronizeTime": {
                  "requestType": "Cora.TimeSync",
                  "responseType": "Cora.TimeSync"
                }
              }
            }
          }
        },
        "VoidMsg": {
          "fields": {}
        },
        "Uint32Param": {
          "fields": {
            "param": {
              "rule": "required",
              "type": "uint32",
              "id": 1
            }
          }
        },
        "ResetMode": {
          "values": {
            "UNKNOWN": 0,
            "NETWORK": 1,
            "FACTORY": 2,
            "WATCHDOG": 3
          }
        },
        "LedDisplayMode": {
          "values": {
            "DISABLED": 0,
            "TELEMETRY": 1,
            "ALL": 2
          }
        },
        "HealthCheckInfo": {
          "fields": {
            "battery": {
              "type": "uint32",
              "id": 1
            },
            "temperature": {
              "type": "sint32",
              "id": 2
            }
          }
        },
        "ResetInfo": {
          "fields": {
            "mode": {
              "rule": "required",
              "type": "ResetMode",
              "id": 1
            },
            "version": {
              "rule": "required",
              "type": "string",
              "id": 2
            }
          }
        },
        "TimeConfiguration": {
          "fields": {
            "timezone": {
              "type": "uint32",
              "id": 2
            },
            "latitude": {
              "type": "sint32",
              "id": 3,
              "options": {
                "default": 0
              }
            },
            "longitude": {
              "type": "sint32",
              "id": 4,
              "options": {
                "default": 0
              }
            },
            "bDaylightSavings": {
              "type": "bool",
              "id": 5,
              "options": {
                "default": false
              }
            }
          }
        },
        "TimeSync": {
          "fields": {
            "timeServer": {
              "type": "uint32",
              "id": 1
            },
            "timeDevice": {
              "type": "uint32",
              "id": 2
            },
            "timeCorrection": {
              "type": "uint32",
              "id": 3
            },
            "request": {
              "type": "bool",
              "id": 4
            }
          }
        },
        "BimodalSwitch": {
          "nested": {
            "EventId": {
              "values": {
                "EVENT_UNSET": 0,
                "EVENT_SET": 1
              }
            },
            "State": {
              "values": {
                "STATE_UNSET": 0,
                "STATE_SET": 1,
                "STATE_TOGGLE": 2
              }
            },
            "Notification": {
              "fields": {
                "id": {
                  "rule": "required",
                  "type": "uint32",
                  "id": 1
                },
                "event": {
                  "rule": "required",
                  "type": "EventId",
                  "id": 2
                },
                "idItem": {
                  "rule": "required",
                  "type": "uint32",
                  "id": 3
                },
                "action": {
                  "type": "Schedule.Action",
                  "id": 4
                },
                "dtLast": {
                  "rule": "required",
                  "type": "uint32",
                  "id": 5
                }
              }
            },
            "StateInfo": {
              "fields": {
                "id": {
                  "rule": "required",
                  "type": "uint32",
                  "id": 1
                },
                "state": {
                  "rule": "required",
                  "type": "State",
                  "id": 2
                }
              }
            },
            "Configuration": {
              "fields": {
                "id": {
                  "rule": "required",
                  "type": "uint32",
                  "id": 1
                },
                "confirmNotify": {
                  "type": "bool",
                  "id": 2,
                  "options": {
                    "default": true
                  }
                },
                "enableNotify": {
                  "type": "bool",
                  "id": 3,
                  "options": {
                    "default": true
                  }
                },
                "statsInterval": {
                  "type": "uint32",
                  "id": 4,
                  "options": {
                    "default": 0
                  }
                },
                "confirmStats": {
                  "type": "bool",
                  "id": 5,
                  "options": {
                    "default": false
                  }
                }
              }
            },
            "StateStats": {
              "fields": {
                "count": {
                  "rule": "required",
                  "type": "uint32",
                  "id": 1
                },
                "totalTime": {
                  "rule": "required",
                  "type": "uint32",
                  "id": 2
                },
                "minDuration": {
                  "rule": "required",
                  "type": "uint32",
                  "id": 3
                },
                "maxDuration": {
                  "rule": "required",
                  "type": "uint32",
                  "id": 4
                }
              }
            },
            "Statistics": {
              "fields": {
                "id": {
                  "rule": "required",
                  "type": "uint32",
                  "id": 1
                },
                "statsUnset": {
                  "rule": "required",
                  "type": "StateStats",
                  "id": 2
                },
                "statsSet": {
                  "rule": "required",
                  "type": "StateStats",
                  "id": 3
                }
              }
            },
            "Controller": {
              "methods": {
                "NotifyEvent": {
                  "requestType": "Notification",
                  "responseType": "Cora.VoidMsg"
                },
                "StatsReportEvent": {
                  "requestType": "Statistics",
                  "responseType": "Cora.VoidMsg"
                },
                "GetConfig": {
                  "requestType": "Cora.Uint32Param",
                  "responseType": "Configuration"
                },
                "SetConfig": {
                  "requestType": "Configuration",
                  "responseType": "Configuration"
                },
                "GetStats": {
                  "requestType": "Cora.Uint32Param",
                  "responseType": "Statistics"
                },
                "StatsClear": {
                  "requestType": "Cora.Uint32Param",
                  "responseType": "Cora.VoidMsg"
                },
                "GetState": {
                  "requestType": "Cora.Uint32Param",
                  "responseType": "StateInfo"
                },
                "SetState": {
                  "requestType": "StateInfo",
                  "responseType": "Cora.VoidMsg"
                }
              }
            }
          }
        },
        "Schedule": {
          "nested": {
            "Action": {
              "values": {
                "ACTION_NONE": 0,
                "ACTION_UNSET": 1,
                "ACTION_SET": 2,
                "ACTION_TOGGLE": 3
              }
            },
            "TriggerType": {
              "values": {
                "TRIGGER_EPOCH": 1,
                "TRIGGER_SUNRISE": 2,
                "TRIGGER_SUNSET": 3
              }
            },
            "ItemType": {
              "values": {
                "ITEMTYPE_UNKNOWN": 0,
                "ITEMTYPE_WEEKLY": 1,
                "ITEMTYPE_TIMER": 2,
                "ITEMTYPE_TRIGGERSET": 3,
                "ITEMTYPE_STARTACTION": 4
              }
            },
            "ScheduleItemId": {
              "fields": {
                "id": {
                  "rule": "required",
                  "type": "uint32",
                  "id": 1
                },
                "idItem": {
                  "rule": "required",
                  "type": "uint32",
                  "id": 2
                }
              }
            },
            "WeeklyConfig": {
              "fields": {
                "type": {
                  "rule": "required",
                  "type": "TriggerType",
                  "id": 2
                },
                "mask": {
                  "rule": "required",
                  "type": "uint32",
                  "id": 3
                },
                "offset": {
                  "type": "sint32",
                  "id": 4,
                  "options": {
                    "default": 0
                  }
                },
                "secday": {
                  "type": "uint32",
                  "id": 5,
                  "options": {
                    "default": 0
                  }
                }
              }
            },
            "TriggerSet": {
              "fields": {
                "items": {
                  "rule": "repeated",
                  "type": "ScheduleItemId",
                  "id": 1
                }
              }
            },
            "TimerConfig": {
              "fields": {
                "duration": {
                  "rule": "required",
                  "type": "uint32",
                  "id": 1
                },
                "delay": {
                  "type": "uint32",
                  "id": 2,
                  "options": {
                    "default": 0
                  }
                },
                "cycleCount": {
                  "type": "uint32",
                  "id": 3,
                  "options": {
                    "default": 1
                  }
                }
              }
            },
            "ScheduleItem": {
              "oneofs": {
                "config": {
                  "oneof": [
                    "timer",
                    "weekly",
                    "triggerset"
                  ]
                }
              },
              "fields": {
                "id": {
                  "rule": "required",
                  "type": "uint32",
                  "id": 1
                },
                "enabled": {
                  "rule": "required",
                  "type": "bool",
                  "id": 2,
                  "options": {
                    "default": true
                  }
                },
                "type": {
                  "rule": "required",
                  "type": "ItemType",
                  "id": 3
                },
                "actionStart": {
                  "type": "Action",
                  "id": 4,
                  "options": {
                    "default": "ACTION_NONE"
                  }
                },
                "actionStop": {
                  "type": "Action",
                  "id": 5,
                  "options": {
                    "default": "ACTION_NONE"
                  }
                },
                "linkedItem": {
                  "type": "ScheduleItemId",
                  "id": 6
                },
                "timer": {
                  "type": "TimerConfig",
                  "id": 10
                },
                "weekly": {
                  "type": "WeeklyConfig",
                  "id": 11
                },
                "triggerset": {
                  "type": "TriggerSet",
                  "id": 12
                }
              }
            },
            "Configuration": {
              "fields": {
                "id": {
                  "rule": "required",
                  "type": "uint32",
                  "id": 1
                },
                "items": {
                  "rule": "repeated",
                  "type": "ScheduleItem",
                  "id": 2
                }
              }
            },
            "Controller": {
              "methods": {
                "SetSchedule": {
                  "requestType": "Configuration",
                  "responseType": "Cora.VoidMsg"
                },
                "GetSchedule": {
                  "requestType": "Cora.Uint32Param",
                  "responseType": "Configuration"
                },
                "ResetSchedule": {
                  "requestType": "Cora.Uint32Param",
                  "responseType": "Cora.VoidMsg"
                },
                "GetScheduleItem": {
                  "requestType": "ScheduleItemId",
                  "responseType": "Configuration"
                },
                "TriggerScheduleItem": {
                  "requestType": "ScheduleItemId",
                  "responseType": "Cora.VoidMsg"
                }
              }
            }
          }
        },
        "Temperature": {
          "nested": {
            "TriggerMode": {
              "values": {
                "ABSGT": 0,
                "ABSLT": 1,
                "DELTA": 2,
                "DELTAPOS": 3,
                "DELTANEG": 4,
                "RATE": 5,
                "RATEPOS": 6,
                "RATENEG": 7
              }
            },
            "TriggerInfo": {
              "fields": {
                "id": {
                  "rule": "required",
                  "type": "uint32",
                  "id": 1
                },
                "trigger": {
                  "rule": "required",
                  "type": "uint32",
                  "id": 2
                },
                "temperature": {
                  "rule": "required",
                  "type": "sint32",
                  "id": 3
                },
                "uncertainty": {
                  "rule": "required",
                  "type": "uint32",
                  "id": 4
                }
              }
            },
            "ReportInfo": {
              "fields": {
                "id": {
                  "rule": "required",
                  "type": "uint32",
                  "id": 1
                },
                "temperature": {
                  "rule": "required",
                  "type": "sint32",
                  "id": 2
                },
                "uncertainty": {
                  "rule": "required",
                  "type": "uint32",
                  "id": 3
                }
              }
            },
            "TriggerSpec": {
              "fields": {
                "id": {
                  "rule": "required",
                  "type": "uint32",
                  "id": 1
                },
                "threshold": {
                  "rule": "required",
                  "type": "uint32",
                  "id": 2
                },
                "hysteresis": {
                  "type": "uint32",
                  "id": 3
                },
                "mode": {
                  "rule": "required",
                  "type": "TriggerMode",
                  "id": 4
                },
                "scheduleiItem": {
                  "type": "ScheduleItem",
                  "id": 5
                }
              },
              "nested": {
                "ScheduleItem": {
                  "fields": {
                    "id": {
                      "rule": "required",
                      "type": "uint32",
                      "id": 1
                    },
                    "idItem": {
                      "rule": "required",
                      "type": "uint32",
                      "id": 2
                    }
                  }
                }
              }
            },
            "Configuration": {
              "fields": {
                "id": {
                  "rule": "required",
                  "type": "uint32",
                  "id": 1
                },
                "triggers": {
                  "rule": "repeated",
                  "type": "TriggerSpec",
                  "id": 2
                },
                "reportInterval": {
                  "type": "uint32",
                  "id": 3,
                  "options": {
                    "default": 0
                  }
                },
                "statsReportInterval": {
                  "type": "uint32",
                  "id": 4,
                  "options": {
                    "default": 0
                  }
                },
                "samplingInterval": {
                  "type": "uint32",
                  "id": 5,
                  "options": {
                    "default": 0
                  }
                },
                "confirmTrigger": {
                  "type": "bool",
                  "id": 6,
                  "options": {
                    "default": true
                  }
                },
                "confirmStats": {
                  "type": "bool",
                  "id": 7,
                  "options": {
                    "default": false
                  }
                }
              }
            },
            "Statistics": {
              "fields": {
                "id": {
                  "rule": "required",
                  "type": "uint32",
                  "id": 1
                },
                "minTemp": {
                  "rule": "required",
                  "type": "sint32",
                  "id": 2
                },
                "maxTemp": {
                  "rule": "required",
                  "type": "sint32",
                  "id": 3
                },
                "avgTemp": {
                  "rule": "required",
                  "type": "sint32",
                  "id": 4
                },
                "variance": {
                  "rule": "required",
                  "type": "sint32",
                  "id": 5
                },
                "count": {
                  "rule": "required",
                  "type": "uint32",
                  "id": 6
                }
              }
            },
            "Sensor": {
              "methods": {
                "TriggerNotifyEvent": {
                  "requestType": "TriggerInfo",
                  "responseType": "Cora.VoidMsg"
                },
                "ReportEvent": {
                  "requestType": "ReportInfo",
                  "responseType": "Cora.VoidMsg"
                },
                "StatsReportEvent": {
                  "requestType": "Statistics",
                  "responseType": "Cora.VoidMsg"
                },
                "GetConfig": {
                  "requestType": "Cora.Uint32Param",
                  "responseType": "Configuration"
                },
                "SetConfig": {
                  "requestType": "Configuration",
                  "responseType": "Configuration"
                },
                "GetStats": {
                  "requestType": "Cora.Uint32Param",
                  "responseType": "Statistics"
                },
                "StatsClear": {
                  "requestType": "Cora.Uint32Param",
                  "responseType": "Cora.VoidMsg"
                }
              }
            }
          }
        }
      }
    }
  }
}